<?xml version="1.0" standalone="no"?>
<!DOCTYPE svg PUBLIC "-//W3C//DTD SVG 1.1//EN" "http://www.w3.org/Graphics/SVG/1.1/DTD/svg11.dtd" >
<!--
2017-9-4: Created with FontForge (http://fontforge.org)
-->
<svg xmlns="http://www.w3.org/2000/svg" xmlns:xlink="http://www.w3.org/1999/xlink" version="1.1">
<metadata>
Created by FontForge 20160405 at Mon Sep  4 08:28:33 2017
 By Apache
Copyright (c) 2017, Apache
</metadata>
<defs>
<font id="Flaticon" horiz-adv-x="512" >
  <font-face 
    font-family="Flaticon"
    font-weight="400"
    font-stretch="normal"
    units-per-em="512"
    panose-1="2 0 5 3 0 0 0 0 0 0"
    ascent="448"
    descent="-64"
    bbox="29.2842 -64.001 482.716 448"
    underline-thickness="25.6"
    underline-position="-51.2"
    unicode-range="U+0020-F103"
  />
    <missing-glyph />
    <glyph glyph-name="space" unicode=" " horiz-adv-x="200" 
 />
    <glyph glyph-name="uniF101" unicode="&#xf101;" 
d="M441.617 325.306c0.0488281 -0.37207 0.107422 -0.742188 0.108398 -1.12402v-368.104c0 -11.0693 -9.00977 -20.0791 -20.0791 -20.0791h-331.294c-11.0781 0 -20.0781 9.01074 -20.0781 20.0791v471.843c0 11.0693 9 20.0791 20.0781 20.0791h242.607
c0.785156 0 1.55957 -0.106445 2.30469 -0.282227c0.185547 -0.0488281 0.352539 -0.125 0.539062 -0.183594c0.685547 -0.205078 1.35254 -0.482422 1.97949 -0.823242c0.226562 -0.12793 0.442383 -0.257812 0.657227 -0.392578
c0.725586 -0.482422 1.41113 -1.01953 2 -1.67578c0.0205078 -0.0302734 0.0488281 -0.0390625 0.078125 -0.0712891l98.7168 -112.765c1.6123 -1.83301 2.3623 -4.15723 2.38184 -6.50098zM168.344 -12.7549c-24.5771 0 -39.0273 15.3535 -39.0264 39.75
c0 27.0918 16.9795 40.2783 38.8398 40.2783c9.75195 0 17.5293 -2.15723 23.125 -4.50488l5.60742 21.8584c-4.88477 2.53418 -15.7275 5.42188 -30.002 5.42188c-36.8555 0 -66.4902 -23.1279 -66.4902 -64.6865c0 -34.6865 21.6836 -60.8916 63.7842 -60.8916
c14.8193 0 26.1973 2.71484 31.2578 5.24512l-4.15723 21.5c-5.4209 -2.16699 -14.6367 -3.9707 -22.9385 -3.9707zM243.335 -35.5283c33.4287 0 49.1445 17.3525 49.1553 37.7646c0 17.166 -10.123 28.3574 -31.6182 36.3135
c-15.7305 5.96094 -22.5908 9.3877 -22.5908 17.167c0 6.32324 5.78223 11.7451 17.7031 11.7451c11.9316 0 20.5938 -3.43164 25.4814 -5.78418l6.13672 22.2246c-7.2207 3.25977 -17.3428 6.14746 -31.0732 6.14746c-28.7295 0 -46.0732 -15.9033 -46.0732 -36.6865
c0 -17.707 13.1895 -28.9023 33.4219 -35.9512c14.6367 -5.23633 20.416 -9.56836 20.416 -17.1562c0 -7.95117 -6.68652 -13.1963 -19.333 -13.1963c-11.7461 0 -23.125 3.79395 -30.5391 7.58789l-5.59668 -22.7646c6.86328 -3.79395 20.6006 -7.41113 34.5098 -7.41113z
M371.989 -33.71l41.0205 121.769h-29.2744l-15.5391 -52.0381c-4.15625 -13.9072 -7.95117 -28.3633 -11.0195 -43.001h-0.539062c-2.8916 15.1816 -6.68652 29.0938 -10.8428 43.5439l-14.8145 51.501h-30.1768l39.0283 -121.774h32.1572zM90.3525 107.084v-0.00683594
h331.294v208.069h-88.6865c-5.53906 0 -10.04 4.49707 -10.04 10.0391v102.735h-232.567v-320.837zM350.617 289.922h0.000976562v-24.6553h0.113281v-86.1592h-122.022v0h-63.6396v27.167v2.14062v25.0273v2.14844v25.1279v2.03809v27.165h60.4209v0h61.4902h2.14746
h61.4893zM226.559 181.244h-0.000976562v25.0303h-59.3398v-25.0303h59.3408zM226.559 208.415h-0.000976562v25.0273h-59.3398v-25.0273h59.3408zM226.559 235.591h-0.000976562v25.0176h-1.06836h-58.2715v-25.0176h59.3408zM227.64 262.757h1.06836h58.2725v25.0176
h-59.3408v-25.0176zM348.215 181.618h-0.000976562v78.9902h-59.0869h-2.15137h-58.2725v-25.0176v-2.14844v-25.0273v-2.14062v-24.6562h22.6074v42.167h16.0908v-42.167h11.8037v56.8242h16.0889v-56.8242h13.4023v71.667h16.0879v-71.667h23.4307zM348.47 265.267
h0.000976562v22.5078h-59.3428v-25.0176h59.0869v2.50977h0.254883z" />
    <glyph glyph-name="uniF102" unicode="&#xf102;" 
d="M149.083 185.656c0 -15.3516 -11.1191 -24.4697 -29.1445 -24.4697c-4.87988 0 -8.43848 0.224609 -11.333 0.881836v44.2725c2.44824 0.666016 7.11719 1.33105 14.0098 1.33105c16.8945 0 26.4678 -8.22852 26.4678 -22.0156zM253.652 207.228
c29.1328 0 47.377 -16.4531 47.1514 -47.6055c0 -35.8135 -20.0195 -52.71 -50.7109 -52.4951c-4.22754 0 -8.89941 0 -11.7959 0.676758v98.0898c2.90234 0.666992 7.78418 1.33398 15.3555 1.33398zM454.019 264.86c15.8438 0 28.6963 -12.8457 28.6973 -28.6982v-149.231
c0 -15.8418 -12.8525 -28.6953 -28.6963 -28.6953h-12.2939v-102.156c0 -11.0693 -9.00977 -20.0791 -20.0781 -20.0791h-331.294c-11.0781 0 -20.0781 9.01074 -20.0781 20.0791v102.156h-12.293c-15.8477 0 -28.6973 12.8535 -28.6973 28.6953v149.235
c0 15.8535 12.8496 28.6982 28.6973 28.6982h12.292v163.057c0 11.0693 9 20.0791 20.0781 20.0791h242.607c0.785156 0 1.55957 -0.110352 2.30469 -0.287109c0.185547 -0.0488281 0.353516 -0.125 0.539062 -0.176758
c0.685547 -0.205078 1.35254 -0.490234 1.98047 -0.833008c0.225586 -0.124023 0.442383 -0.245117 0.65625 -0.389648c0.725586 -0.472656 1.41113 -1.01953 2 -1.67676c0.0205078 -0.03125 0.0488281 -0.0419922 0.0791016 -0.0703125l98.7158 -112.767
c1.6123 -1.83301 2.3623 -4.14648 2.38184 -6.50195c0.0488281 -0.375 0.107422 -0.74707 0.107422 -1.11719v-59.3203h12.2939zM90.3525 427.917v-163.063h331.294v50.2959h-88.6865c-5.53906 0 -10.0391 4.49316 -10.0391 10.04v102.728h-232.568zM336.833 160.746
c0 26.4697 -9.78906 44.9277 -25.3525 56.4961c-14.4648 10.8926 -32.9316 16.0127 -61.3877 16.0127c-17.1279 0 -33.375 -1.1123 -45.8301 -3.11035v-147.256c8.46191 -1.1084 20.916 -2.2207 38.4844 -2.2207c29.3516 0 53.3799 6.22461 69.1553 19.3477
c14.4795 12.2402 24.9307 32.0293 24.9307 60.7305zM75.0146 82.2207v-0.00390625h33.5859v53.6074c3.10059 -0.445312 7.11816 -0.671875 11.5596 -0.671875c20.0244 0 37.1494 4.89746 48.7148 15.7988c8.9043 8.44727 13.7842 20.9023 13.7842 35.5879
c0 14.6816 -6.43457 27.1406 -16.002 34.6982c-10.0059 8.01367 -24.9121 12.0176 -45.8184 12.0176c-20.6865 0 -35.375 -1.33984 -45.8242 -3.11035v-147.924zM421.647 -38.4854h-0.000976562v96.7207h-331.294v-96.7207h331.295zM450.739 204.339v27.8037h-91.6367
v-149.923h34.0146v60.2803h53.833v27.583h-53.833v34.2559h57.6221z" />
    <glyph glyph-name="uniF100" unicode="&#xf100;" 
d="M454.019 264.86c15.8428 0 28.6963 -12.8408 28.6953 -28.6963v-149.232c0 -15.8438 -12.8525 -28.6963 -28.6953 -28.6963h-12.292v-102.157c0 -11.0693 -9.01074 -20.0781 -20.0791 -20.0781h-331.295c-11.0781 0 -20.0781 9.00879 -20.0781 20.0781v102.157h-12.291
c-15.8486 0 -28.6992 12.8594 -28.6992 28.7021v149.232c0 15.8506 12.8506 28.6953 28.6992 28.6953h12.291v163.056c0 11.0684 9 20.0791 20.0781 20.0791h242.608c0.783203 0 1.55762 -0.110352 2.30371 -0.286133
c0.186523 -0.0498047 0.352539 -0.126953 0.538086 -0.174805c0.686523 -0.207031 1.35352 -0.493164 1.98047 -0.833984c0.226562 -0.124023 0.442383 -0.245117 0.658203 -0.391602c0.725586 -0.470703 1.41113 -1.0166 1.99902 -1.67676
c0.0195312 -0.0292969 0.0507812 -0.0390625 0.0791016 -0.0703125l98.7158 -112.761c1.61328 -1.83008 2.3623 -4.14551 2.38281 -6.49902c0.0478516 -0.37793 0.108398 -0.748047 0.108398 -1.12012v-59.3262h12.292zM90.3525 427.921v-163.06h331.295v50.2959h-88.6865
c-5.54102 0 -10.04 4.49219 -10.04 10.0391v102.725h-232.568zM241.5 155.549c18.0146 -6.44141 25.1367 -11.7744 25.1416 -21.1211c0 -9.79395 -8.2334 -16.2451 -23.8018 -16.2451c-14.4629 0 -28.4736 4.66211 -37.5986 9.34375l-6.8916 -28.0293
c8.44922 -4.66309 25.3613 -9.12305 42.4854 -9.12305c41.1543 0 60.5039 21.3623 60.5039 46.4902c0 21.1367 -12.457 34.9199 -38.9219 44.7051c-19.3613 7.34277 -27.8096 11.5654 -27.8096 21.1348c0 7.78418 7.11816 14.46 21.7949 14.46
c14.6865 0 25.3623 -4.22559 31.3662 -7.12695l7.55469 27.3604c-8.89062 4.01172 -21.3477 7.57031 -38.2568 7.57031c-35.3652 0 -56.7129 -19.5762 -56.7129 -45.166c0 -21.792 16.2324 -35.5762 41.1465 -44.2529zM64.876 165.343
c0 -42.7051 26.6934 -74.9697 78.5195 -74.9688c18.2412 0 32.251 3.3418 38.4805 6.46094l-5.11914 26.4697c-6.67188 -2.6709 -18.0176 -4.8916 -28.2402 -4.8916c-30.2598 0 -48.0498 18.9023 -48.0498 48.9316c0 33.3594 20.9023 49.585 47.8164 49.585
c12.0078 0 21.582 -2.66602 28.4736 -5.5459l6.90234 26.9082c-6.00977 3.11719 -19.3555 6.67578 -36.9316 6.67578c-45.3643 0 -81.8516 -28.4697 -81.8516 -79.625zM421.647 -38.4795v96.7148h-331.295v-96.7148h331.295zM399.221 92.6074l50.5049 149.91h-36.0449
l-19.1309 -64.0576c-5.11816 -17.127 -9.78418 -34.9199 -13.5645 -52.9404h-0.662109c-3.56738 18.6865 -8.23633 35.8125 -13.3525 53.5977l-18.2334 63.4004h-37.1533l48.0439 -149.91h39.5928z" />
    <glyph glyph-name="uniF103" unicode="&#xf103;" 
d="M441.626 325.298c0.0410156 -0.369141 0.0996094 -0.74707 0.0996094 -1.12109v-368.099c0 -11.0732 -9.00195 -20.0781 -20.0791 -20.0781h-331.294c-11.0684 0 -20.0791 9.00488 -20.0791 20.0781v471.843c0 11.0674 9.01074 20.0791 20.0791 20.0791h242.617
c0.783203 0 1.54883 -0.113281 2.30371 -0.287109c0.186523 -0.0507812 0.353516 -0.125 0.539062 -0.180664c0.686523 -0.206055 1.34277 -0.487305 1.98047 -0.828125c0.225586 -0.125977 0.441406 -0.250977 0.657227 -0.393555
c0.725586 -0.474609 1.40137 -1.01562 1.99121 -1.67578c0.0283203 -0.0292969 0.0576172 -0.0390625 0.0771484 -0.0683594l98.7266 -112.768c1.6123 -1.83203 2.35254 -4.14941 2.38086 -6.50098zM154.588 -26.5781v-0.000976562h25.1992l-28.627 49.3877l27.1904 47.0771
h-24.8975l-8.16211 -17.6123c-2.42871 -5.57227 -4.28613 -9.8623 -6.58105 -16.0195h-0.280273c-2.29395 5.44238 -4.44238 10.1592 -7.30273 16.0195l-8.44336 17.6123h-25.0469l26.9043 -47.6514l-27.9092 -48.8125h24.8975l8.0166 17.4648
c3.00391 6.73145 5.43555 11.7412 7.43848 17.3193h0.287109c2.7207 -5.57812 5.00684 -10.5879 8.58301 -17.3193zM251.747 -26.5781v18.332h-38.3555v78.1318h-21.8994v-96.4639h60.2549zM288.23 -28c26.4746 0 38.9268 13.7354 38.9248 29.9082
c0 13.5957 -8.00977 22.4609 -25.0391 28.7666c-12.4512 4.71582 -17.8877 7.43652 -17.8877 13.5879c0 5.01855 4.57422 9.30859 14.0195 9.30859c9.44727 0 16.3145 -2.72461 20.1826 -4.58301l4.8623 17.6045c-5.71582 2.58301 -13.7402 4.86719 -24.6094 4.86719
c-22.7637 0 -36.499 -12.5928 -36.499 -29.0498c0 -14.0283 10.4521 -22.9014 26.4766 -28.4785c11.5918 -4.14844 16.1699 -7.58887 16.1699 -13.5879c0 -6.30957 -5.28906 -10.4521 -15.3135 -10.4521c-9.29297 0 -18.3135 3.00586 -24.1846 6.00488l-4.42871 -18.0303
c5.43848 -3.00488 16.3115 -5.86621 27.3262 -5.86621zM392.695 -26.5781v-0.000976562h25.1914l-28.6211 49.3877l27.1895 47.0771h-24.9004l-8.1582 -17.6123c-2.4375 -5.57227 -4.29883 -9.8623 -6.58301 -16.0195h-0.290039
c-2.28906 5.44238 -4.43066 10.1592 -7.28906 16.0195l-8.45215 17.6123h-25.0479l26.9072 -47.6514l-27.9072 -48.8125h24.9004l8.01465 17.4648c3.00684 6.73145 5.44727 11.7412 7.44727 17.3193h0.274414c2.72559 -5.57812 5.00977 -10.5879 8.58984 -17.3193z
M90.3525 107.08h331.303l-0.00878906 208.064h-88.6768c-5.54883 0 -10.0391 4.49707 -10.0391 10.0391v102.733h-232.578v-320.837zM290.353 319.131h88.2598v-37.6484v-5.01855v-37.6465v-32.627v-42.6689h-83.2393h-5.02051h-78.2207h-5.01953h-83.2402v37.6504v5.01855
v32.627v5.01855v32.6279v5.01855v37.6484h88.2598h78.2207zM290.353 243.835v32.6279h-78.2207v-32.6279h78.2207zM128.892 314.11v-32.6279h78.2207v32.6279h-78.2207zM128.892 276.463v-32.6279h78.2207v32.6279h-78.2207zM128.892 238.816v-32.627h78.2207v32.627
h-78.2207zM128.892 168.539h78.2207v32.6309h-78.2207v-32.6309zM212.132 168.539h78.2207v32.6309h-78.2207v-32.6309zM373.597 168.539h-0.00488281v32.6309h-78.2197v-32.6309h78.2246zM373.597 243.835h-0.00488281v32.6279h-78.2197v-32.6279h78.2246zM295.373 281.482
h78.2197v32.6279h-78.2197v-32.6279z" />
  </font>
</defs></svg>
